\\User-PC\DARUMA 
TABERNA LOJA DE BEBIDAS                  
Fone: (19) 3549-2750 
Data: 31/07/2015 Hora: 19:31:41 

Data venda: 31/07/2015 
Num. venda: 011550     Ref.:0 
Cli: 00000  
END: , 


Cod. Produto             Nome do produto 
----------------------------------------
90         BRAHMA 300ML
3,00    x 2,50       0,00  % 7,50       
---------------------------------------- 
             Produtos +             7,50
         Desconto(%) -              0,00
        Desconto(R$) -              0,00
               Total =              7,50
          Total Pago =              7,50
       Total Devedor =              0,00

 Parc Venc  Valor  Pago   Devedor  Forma
---------------------------------------- 
 01 31/07      7,50     7,50     0,00 DN
        Saldo devedor               0,00

         Moji Mirim, 31/07/2015         


     ------------------------------      
                                        


         **** VOLTE SEMPRE ****          










