\\User-PC\DARUMA 
TABERNA LOJA DE BEBIDAS                  
Fone: (19) 3549-2750 
Data: 24/07/2015 Hora: 23:46:44 

Data venda: 24/07/2015 
Num. venda: 011224     Ref.:0 
Cli: 00000  
END: , 


Cod. Produto             Nome do produto 
----------------------------------------
142        ANTARCTICA 600 ML
1,00    x 6,50       0,00  % 6,50       
156        H20 500ML
1,00    x 2,99       0,00  % 2,99       
---------------------------------------- 
             Produtos +             9,49
         Desconto(%) -              0,00
        Desconto(R$) -              0,00
               Total =              9,49
          Total Pago =              0,00
       Total Devedor =              9,49

 Parc Venc  Valor  Pago   Devedor  Forma
---------------------------------------- 
 01 24/07      9,49     0,00     9,49 DN
        Saldo devedor               9,49

         Moji Mirim, 24/07/2015         


     ------------------------------      
                                        


         **** VOLTE SEMPRE ****          










