\\User-PC\DARUMA 
TABERNA LOJA DE BEBIDAS                  
Fone: (19) 3549-2750 
Data: 22/07/2015 Hora: 18:03:51 

Data venda: 22/07/2015 
Num. venda: 011116     Ref.:0 
Cli: 00000  
END: , 


Cod. Produto             Nome do produto 
----------------------------------------
110        SKOL 300ML
1,00    x 2,49       0,00  % 2,49       
---------------------------------------- 
             Produtos +             2,49
  Taxa Servico (10%) +              0,00
         Desconto(%) -              0,00
        Desconto(R$) -              0,00
               Total =              2,49
          Total Pago =              2,49
       Total Devedor =              0,00

 Parc Venc  Valor  Pago   Devedor  Forma
---------------------------------------- 
 01 22/07      2,49     0,00     2,49 DN
 01 22/07      4,98     0,00     4,98 DN
 01 22/07      2,49     2,49     0,00 DN
        Saldo devedor               0,00

         Moji Mirim, 22/07/2015         


     ------------------------------      
                                        


         **** VOLTE SEMPRE ****          










