\\User-PC\DARUMA 
TABERNA LOJA DE BEBIDAS                  
Fone: (19) 3549-2750 
Data: 31/07/2015 Hora: 20:02:25 

Data venda: 31/07/2015 
Num. venda: 011553     Ref.:0 
Cli: 00000  
END: , 


Cod. Produto             Nome do produto 
----------------------------------------
46         COCA COLA  LATA 350 ML
2,00    x 3,00       0,00  % 6,00       
114        BRAHMA 600 ML
5,00    x 6,50       0,00  % 32,50      
218        PORCAO DE CALABRESA
1,00    x 15,00      0,00  % 15,00      
331        PORCAO BATATA
1,00    x 15,00      0,00  % 15,00      
---------------------------------------- 
             Produtos +            68,50
         Desconto(%) -              0,00
        Desconto(R$) -              0,00
               Total =             68,50
          Total Pago =              0,00
       Total Devedor =             68,50

 Parc Venc  Valor  Pago   Devedor  Forma
---------------------------------------- 
 01 31/07     68,00     0,00    68,00 DN
        Saldo devedor              68,50

         Moji Mirim, 31/07/2015         


     ------------------------------      
                                        


         **** VOLTE SEMPRE ****          










