\\User-PC\DARUMA 
TABERNA LOJA DE BEBIDAS                  
Fone: (19) 3549-2750 
Data: 31/07/2015 Hora: 21:55:11 

Data venda: 31/07/2015 
Num. venda: 011573     Ref.:0 
Cli: 00000  
END: , 


Cod. Produto             Nome do produto 
----------------------------------------
90         BRAHMA 300ML
2,00    x 2,50       0,00  % 5,00       
246        MARLBORO BOX GOLD
1,00    x 7,25       0,00  % 7,25       
247        MARLBORO BLUE ICE
1,00    x 7,25       0,00  % 7,25       
---------------------------------------- 
             Produtos +            19,50
         Desconto(%) -              0,00
        Desconto(R$) -              0,00
               Total =             19,50
          Total Pago =             19,50
       Total Devedor =              0,00

 Parc Venc  Valor  Pago   Devedor  Forma
---------------------------------------- 
 01 31/07     19,50    19,50     0,00 DN
        Saldo devedor               0,00

         Moji Mirim, 31/07/2015         


     ------------------------------      
                                        


         **** VOLTE SEMPRE ****          










