NOTA FISCAL|1|
A|2.00|NFe35140604615918000104550010000002061000010728|
B|35|00001072|Revenda de Mercadorias|0|55|1|206|2014-06-18|2014-06-18|16:35:00|1|3522604|1|1||1|1|3|2.00|||
C|Leao E Leao de Itapira Ltda ME|MindWare|374053100113||||1|
C02|04615918000104|
C05|Rua Duque de Caxias|128||Centro|3522604|Itapira|SP|13970520|1058|BRASIL|01938432926|
E|Lucas Alves Oliveira|ISENTO||l.alves.oliveira@hotmail.com|
E03|39806205812|
E05|Rua Viriato Correia|220||Jardim Isaura|3522604|Itapira|SP|13972185|1058|BRASIL|19983931727|
H|1||
I|348||Feijão Preto Sil Bom 30x1kg|07133319||5102|Fardo|1.0000|120.0000000000|120.00||Fardo|1.0000|120.0000000000|||||1|
M|
N|
N10d|0|102|
Q|
Q04|07|
S|
S04|07|
W|
W02|0.00|0.00|0.00|0.00|120.00|0.00|0.00||0.00|0.00|0.00|0.00|0.00|120.00|
X|0|
X03||||||
X05||
X18||||
X25a||
X25b||
Y|
Y02||120.00||120.00|