NOTA FISCAL|1|
A|2.00|NFe35130704615918000104550010000001121000003342|
B|35|00000334|Revenda de Mercadorias|0|55|1|112|2013-07-11|2013-07-11|11:08:00|1|3522604|1|1||2|1|3|2.00|||
C|Leao e Leao de Itapira|Mindware|374053100113||||1|
C02|04615918000104|
C05|Rua Duque de Caxias|128||Centro|3522604|Itapira|SP|13970510|1058|BRASIL|01938432926|
E|ANTONELLI SUPERMERCADOS LTDA - I|374119529114|||
E02|07732866000136|
E05|RUA SOLDADO CONSTITUCIONALISTA|54||JARDIM SOARES|3522604|Itapira|SP|13976025|1058|BRASIL|1939139911|
H|1||
I|1|7898901509097|PAO DE FORMA 500 GRAMAS|19059010||5401|PÇ|20.0000|2.0000000000|40.00|7898901509097|PÇ|20.0000|2.0000000000|||||1|
M|
N|
N10f|0|202|4|28.45||51.38|12.00|1.37|
Q|
Q04|07|
S|
S04|06|
W|
W02|0.00|0.00|51.38|1.37|40.00|0.00|0.00|0.00|0.00|0.00|0.00|0.00|0.00|41.37|
X|9|
Y|
Y02||41.37||41.37|
Z||teste|