NOTA FISCAL|1|
A|2.00|NFe35130804615918000104550010000001661000009116|
B|35|00000911|Venda de Mercadorias com ST|0|55|1|166|2013-08-23|2013-08-23|12:10:00|1|3522604|1|1||2|1|3|2.00|||
C|Leao E Leao de Itapira Ltda ME|MindWare|374053100113||||1|
C02|04615918000104|
C05|Rua Duque de Caxias|128||Centro|3522604|Itapira|SP|13970520|1058|BRASIL|01938432926|
E|ABEL NISA NETO|ISENTO|||
E03|08204816880|
E05|RUA DAS CAMELIAS |36|APT 41 BLOCO A|SANTA MARTA|3522604|Itapira|SP|13970000|1058|BRASIL|1938434491|
H|1||
I|7914700001||CANETA DO BÁTIMA|85285120||5102|Unidad|1.0000|44.0000000000|44.00||Unidad|1.0000|44.0000000000|0.00||||1|
M|
N|
N10d|0|102|
Q|
Q04|07|
S|
S04|07|
W|
W02|0.00|0.00|0.00|0.00|44.00|0.00|0.00||0.00|0.00|0.00|0.00|0.00|44.00|
X|0|
X03||||||
X05||
X18||||
X25a||
X25b||
Y|
Y02||44.00||44.00|