NOTA FISCAL|1|
A|2.00|NFe35131004615918000104550010000001791000009320|
B|35|00000932|Devolução|0|55|1|179|2013-10-11|2013-10-11|16:47:00|1|3522604|1|1||2|1|3|2.00|||
C|Leao E Leao de Itapira Ltda ME|MindWare|374053100113||||1|
C02|04615918000104|
C05|Rua Duque de Caxias|128||Centro|3522604|Itapira|SP|13970520|1058|BRASIL|01938432926|
E|ABEL NISA NETO|ISENTO|||
E03|08204816880|
E05|RUA DAS CAMELIAS |36|APT 41 BLOCO A|SANTA MARTA|3522604|Itapira|SP|13970000|1058|BRASIL|1938434491|
H|1||
I|7912140001||ALÇAPÃO CANELADA ESQ 070 X 060 X 12|33052000||||1.0000|138.0000000000|138.00|||1.0000|138.0000000000|||||1|
M|
N|
N10c|0|101|0.00|0.00|
Q|
Q05||0.00|
S|
S05||0.00|
W|
W02|0.00|0.00|0.00|0.00|138.00|0.00|0.00||0.00|0.00|0.00|0.00|0.00|138|
X|0|
X03||||||
X05||
X18||||
X25a||
X25b||
Y|
Y02||138.00||138.00|
Y07|179/1|2013-10-11|138.00|
Z||EMPRESA OPTANTE PELO SIMPLES NACIONAL PERMITE O APROVEITAMENTO DE CREDITO DE ICMS NO VALOR R$ CORRESPONDENTE ALÍQUOTA DE 1,25% NOS TERMOS DO ART.23 DA LC.

Pedido de compra 123
|