NOTA FISCAL|1|
A|2.00|NFe35130704615918000104550010000001131000003382|
B|35|00000338|Venda de Mercadorias com ST|0|55|1|113|2013-07-16|2013-07-16|16:44:00|1|3522604|1|1||2|1|3|2.00|||
C|Leao e Leao de Itapira|Mindware|374053100113||||1|
C02|04615918000104|
C05|Rua Duque de Caxias|128||Centro|3522604|Itapira|SP|13970510|1058|BRASIL|01938432926|
E|SUPERMERCADO ZEFERINO LTDA - 01|ISENTO|||
E02|69093011000160|
E05|RUA CONSELHEIRO LAURINDO|458||CUBATAO|3522604|Itapira|SP|13972320|1058|BRASIL|1938631254|
G|RUA CONSELHEIRO LAURINDO|458||CUBATAO|3522604|Itapira|SP|
G02|69093011000160|
H|1||
I|17|7898901509509|PAO DE FORMA 500 GR ***|19059010||5401|PÇ|120.0000|1.7700000000|212.40|7898901509509|PÇ|120.0000|1.7700000000|||||1|
M|
N|
N10f|0|202|4|28.45||272.83|12.00|7.25|
Q|
Q04|07|
S|
S04|06|
H|2||
I|18|7898901509516|BISNAGUINHA 300 GR ***|19059020||5401|PÇ|48.0000|1.7700000000|84.96|7898901509516|PÇ|48.0000|1.7700000000|||||1|
M|
N|
N10f|0|202|4|28.45||109.13|12.00|2.90|
Q|
Q04|07|
S|
S04|06|
H|3||
I|20|7898901509530|PAO PARA HOT DOG 200 GR. |19059020||5401|PÇ|60.0000|0.8500000000|51.00|7898901509530|PÇ|60.0000|0.8500000000|||||1|
M|
N|
N10g|0|500|0|0|
Q|
Q04|07|
S|
S04|06|
H|4||
I|21|7898901509547|PAO PARA HOT DOG 4X100 GR|19059020||5401|PÇ|32.0000|1.7100000000|54.72|7898901509547|PÇ|32.0000|1.7100000000|||||1|
M|
N|
N10g|0|500|0|0|
Q|
Q04|07|
S|
S04|06|
W|
W02|0.00|0.00|381.96|10.15|403.08|0.00|0.00|0.00|0.00|0.00|0.00|0.00|0.00|413.23|
X|9|
Y|
Y02||413.23||413.23|
Z||teste|