NOTA FISCAL|1|
A|2.00|NFe35000004615918000104550010000001801000009988|
B|35|00000998|Venda de Mercadorias com ST|0|55|1|180||2013-12-11|15:27:00|1|3522604|1|1||2|1|3|2.00|||
C|Leao E Leao de Itapira Ltda ME|MindWare|374053100113||||1|
C02|04615918000104|
C05|Rua Duque de Caxias|128||Centro|3522604|Itapira|SP|13970520|1058|BRASIL|01938432926|
E|ABEL NISA NETO|ISENTO|||
E05|||||||||1058|BRASIL||
H|1||
I|4931||caneta do bátima|12345678||5102|UN|3.0000|15.0000000000|45.00||UN|3.0000|15.0000000000|||||1|
M|
N|
N10d|0|102|
Q|
Q04|07|
S|
S04|07|
W|
W02|0.00|0.00|0.00|0.00|45.00|0.00|0.00||0.00|0.00|0.00|0.00|0.00|45.00|
X|0|
X03||||||
X05||
X18||||
X25a||
X25b||
Y|
Y02||45.00||45.00|