NOTA FISCAL|1|
A|2.00|NFe35130704615918000104550010000001201000003352|
B|35|00000335|Revenda de Mercadorias|0|55|1|120|2013-07-11|2013-07-11|14:22:00|1|3522604|1|1||2|1|3|2.00|||
C|Leao e Leao de Itapira|Mindware|374053100113||||1|
C02|04615918000104|
C05|Rua Duque de Caxias|128||Centro|3522604|Itapira|SP|13970510|1058|BRASIL|01938432926|
E|SUPERMERCADO JARDIM DE ITAPIRA LTDA - EPP|374024582113|||
E02|60319142000148|
E05|RUA JOSE LOPES|13||LOT. JOAO DE BARRO|3522604|Itapira|SP|13970000|1058|BRASIL||
H|1||
I|1|7898901509097|PAO DE FORMA 500 GRAMAS|19059010||5401|PÇ|20.0000|2.1000000000|42.00|7898901509097|PÇ|20.0000|2.1000000000|||||1|
M|
N|
N10f|0|202|4|28.45||53.95|12.00|1.43|
Q|
Q04|07|
S|
S04|06|
H|2||
I|2|7898901509127|PAO INTEGRAL LIGHT 400 GRAMAS|19059020||5401|PÇ|20.0000|2.0000000000|40.00|7898901509127|PÇ|20.0000|2.0000000000|||||1|
M|
N|
N10f|0|202|4|28.45||51.38|12.00|1.37|
Q|
Q04|07|
S|
S04|06|
H|3||
I|3|7898901509059|PAO DE CENTEIO LIGHT 400 GRAMAS|19059020||5401|PÇ|2.0000|2.2500000000|4.50|7898901509059|PÇ|2.0000|2.2500000000|||||1|
M|
N|
N10f|0|202|4|28.45||5.78|12.00|0.15|
Q|
Q04|07|
S|
S04|06|
H|4||
I|4|7898901509165|PAO SOVADO 500 GRAMAS|19059020||5401|PÇ|15.0000|2.1000000000|31.50|7898901509165|PÇ|15.0000|2.1000000000|||||1|
M|
N|
N10f|0|202|4|28.45||40.46|12.00|1.08|
Q|
Q04|07|
S|
S04|06|
H|5||
I|6|7898901509042|BISNAGUINHA  300 GRAMAS|19059020||5401|PÇ|22.0000|0.8500000000|18.70|7898901509042|PÇ|22.0000|0.8500000000|||||1|
M|
N|
N10f|0|202|4|28.45||24.02|12.00|0.64|
Q|
Q04|07|
S|
S04|06|
W|
W02|0.00|0.00|175.59|4.67|136.70|0.00|0.00|0.00|0.00|0.00|0.00|0.00|0.00|141.37|
X|9|
Y|
Y02||141.37||141.37|
Z||teste|