NOTA FISCAL|1|
A|2.00|NFe35130713357070000143550010000000671000008824|
B|35|00000882|Venda de Mercadorias com ST|0|55|1|67|2013-07-24|2013-07-24|11:40:00|1|3522604|1|1||2|1|3|2.00|||
C|MC PORTOES AUTOMATICOS LTDA ME|MC PORTOES AUTOMATICOS / MC PORTAS E JANELAS|||||1|
C02|13357070000143|
C05|AVENIDA DOS JURITIS |254||PRADOS|3522604|Itapira|SP|13973241|1058|BRASIL|01938431695|
E|ABEL NISA NETO||||
E03|08204816880|
E05|RUA DAS CAMELIAS |36|APT 41 BLOCO A|SANTA MARTA|3522604|Itapira|SP|13970000|1058|BRASIL|1938434491|
H|1||
I|0689E||ALÇAPÃO CANELADA ESQ 100 X 070 X 12|76101000||5656|Peça|1.0000|196.5000000000|196.50||Peça|1.0000|196.5000000000|||||1|
M|
N|
N10d|0|102|
Q|
Q04|07|
S|
S04|07|
W|
W02|0.00|0.00|0.00|0.00|196.50|0.00|0.00|0.00|0.00|0.00|0.00|0.00|0.00|196.50|
X|0|
X03||||||
X05||
X18||||
X25a||
X25b||
Y|
Y02||196.50||196.50|