NOTA FISCAL|1|
A|2.00|NFe35130304615918000104550010000000111000001237|
B|35|00000123|REVENDA DE MERCADORIAS|0|55|1|11|2013-03-07|2013-03-07|20:21:00|1|3522604|1|1||2|1|3|2.00|||
C|Leao e Leao de Itapira|Mindware|374053100113||||1|
C02|04615918000104|
C05|Rua Duque de Caxias|128||Centro|3522604|Itapira|SP|13970510|1058|BRASIL|01938432926|
E|Consumidor||||
E03||
E05|||||0||||1058|BRASIL||
H|1||
I|ASDW95||ALÇAPÃO C/ PORTA CADEADO 060 X 060  CANT.|||||1.0000|78.4000000000|78.40|||1.0000|78.4000000000|||1.57||1|
M|
N|
N10c|0|101|0.00|0.00|
Q|
Q05||0.00|
S|
S05||0.00|
W|
W02|0.00|0.00|0.00|0.00|78.40|0.00|0.00|1.57|0.00|0.00|0.00|0.00|0.00|76.83|
X|9|
Y|
Y02||76.83||76.83|
Y07|11/1|2013-04-07|76.83|
Z||teste|