NOTA FISCAL|1|
A|2.00|NFe35000004615918000104550010000001821000011081|
B|35|00001108|Devolução|0|55|1|182|2013-12-26|2013-12-26|14:32:00|1|3522604|1|1||2|1|3|2.00|||
C|Leao E Leao de Itapira Ltda ME|MindWare|374053100113||||1|
C02|04615918000104|
C05|Rua Duque de Caxias|128||Centro|3522604|Itapira|SP|13970520|1058|BRASIL|01938432926|
E|QUIMICA AMPARO LTDA|1680008921114||atendimento.cliente@ype.ind.br|
E02|43461789000190|
E05|AV WALDYR BEIRA 1000|0||FIGUEIRA|3501905|Amparo|SP|13904906|1058|BRASIL|19|
G|AV WALDYR BEIRA 1000|0||FIGUEIRA|3501905|Amparo|SP|
G02|43461789000190|
H|1||
I|1||ABAFADOR POMP MUFFLER 3M|39269090||1102|UN|2.0000|5.0000000000|10.00||UN|2.0000|5.0000000000|||||1|
M|
N|
N10c|0|101|12.00|1.20|
Q|
Q04|07|
S|
S04|07|
H|2||
I|2||ABAIXADOR LINGUA THEOTO C/100|12345678||5102|UN|1.0000|10.0000000000|10.00||UN|1.0000|10.0000000000|10.00||||1|
M|
N|
N10c|0|101|18.00|1.80|
Q|
Q04|07|
S|
S04|07|
W|
W02|0.00|0.00|0.00|0.00|0.00|10.00|0.00||0.00|0.00|0.00|0.00|0.00|30.00|
X|0|
X03||||||
X05||
X18||||
X25a||
X25b||
Y|
Y02||30.00||30.00|