NOTA FISCAL|1|
A|2.00|NFe35140804615918000104550010000000151000000345|
B|35|00000034|Revenda de Mercadorias|0|55|1|15|2014-08-01|2014-08-01|16:47:00|1|3522604|1|1||2|1|3|2.00|||
C|Leao E Leao de Itapira Ltda ME|Mindware|374053100113||||1|
C02|04615918000104|
C05|Rua Duque de Caxias|128||Santa Cruz|3522604|Itapira|SP|13972185|1058|BRASIL|01938432926|
E|Consumidor|ISENTO|||
E03||
E05|||||0||||1058|BRASIL||
H|1||
I|6||Pacote|||||20.0000|5.0000000000|100.00|||20.0000|5.0000000000|||||1|
M|
N|
N10c|0|101|0.00|0.00|
Q|
Q05||0.00|
S|
S05||0.00|
W|
W02|0.00|0.00|0.00|0.00|100.00|0.00|0.00||0.00|0.00|0.00|0.00|0.00|100.00|
X|9|
Y|
Y02||100.00||100.00|
Z|o que é fisco?|Teste contribuinte|