NOTA FISCAL|1|
A|2.00|NFe35140704615918000104550010000000131000000320|
B|35|00000032|Revenda de Mercadorias|0|55|1|13|2014-07-17|2014-07-17|15:59:00|1|3522604|1|1||2|1|3|2.00|||
C|Leao E Leao de Itapira Ltda ME|Mindware|374053100113||||1|
C02|04615918000104|
C05|Rua Duque de Caxias|128||Santa Cruz|3522604|Itapira|SP|13972185|1058|BRASIL|01938432926|
E|NF-E EMITIDA EM AMBIENTE DE HOMOLOGACAO - SEM VALOR FISCAL||||
E02|99999999000191|
E05|Rua Viriato Correia|1313|13113|Jardim Isaura|3522604|Itapira|SP|13972185|1058|BRASIL||
H|1||
I|4||HD C/ DADOS FISCAL|84717012||5102|Unidad|1.0000|232.0000000000|232.00||Unidad|1.0000|232.0000000000|||||1|
M|
N|
N10d|4|102|
Q|
Q04|07|
S|
S04|07|
W|
W02|0.00|0.00|0.00|0.00|232.00|0.00|0.00||0.00|0.00|0.00|0.00|0.00|232.00|
X|9|
Y|
Y02||232.00||232.00|
Z|o que é fisco?|Teste contribuinte|