NOTA FISCAL|1|
A|2.00|NFe35130704615918000104550010000000681000008832|
B|35|00000883|Venda de Mercadorias com ST|0|55|1|68|2013-07-24|2013-07-24|15:17:00|1|3522604|1|1||2|1|3|2.00|||
C|LEAO E LEAO DE ITAPIRA LTDA ME|MINDWARE|374053100113||||1|
C02|04615918000104|
C05|RUA DUQUE DE CAXIAS|128||CENTRO|3522604|Itapira|SP|13973345|1058|BRASIL|01938432926|
E|ABEL NISA NETO|ISENTO|||
E03|08204816880|
E05|RUA DAS CAMELIAS |36|APT 41 BLOCO A|SANTA MARTA|3522604|Itapira|SP|13970000|1058|BRASIL|1938434491|
H|1||
I|66.71.002-5||PORTA BALCÃO|76101000||5656|PÇ|1.0000|1619.6500000000|1619.65||PÇ|1.0000|1619.6500000000|||||1|
L01|620505001|2123|2.0000|SP|
M|
N|
N10d|0|102|
Q|
Q04|07|
S|
S04|07|
W|
W02|0.00|0.00|0.00|0.00|1619.65|0.00|0.00|0.00|0.00|0.00|0.00|0.00|0.00|1619.65|
X|0|
X03||||||
X05||
X18||||
X25a||
X25b||
Y|
Y02||1619.65||1619.65|