NOTA FISCAL|1|
A|2.00|NFe35131004615918000104550010000001711000009160|
B|35|00000916|Venda de Mercadorias com ST|0|55|1|171|2013-10-10|2013-10-10|12:18:00|1|3522604|1|1||2|1|3|2.00|||
C|Leao E Leao de Itapira Ltda ME|MindWare|374053100113||||1|
C02|04615918000104|
C05|Rua Duque de Caxias|128||Centro|3522604|Itapira|SP|13970520|1058|BRASIL|01938432926|
E|Luana Leao|ISENTO|||
E03|39223482895|
E05|Ladeira Sao Joao|126||Centro|3522604|Itapira|SP|13970330|1058|BRASIL|1938435995|
H|1||
I|7914700001||CANETA DO BÁTIMA|85285120||5102|Unidad|1.0000|44.0000000000|44.00||Unidad|1.0000|44.0000000000|||||1|
M|
N|
N10d|0|102|
Q|
Q04|07|
S|
S04|07|
W|
W02|0.00|0.00|0.00|0.00|44.00|0.00|0.00||0.00|0.00|0.00|0.00|0.00|44.00|
X|0|
X03||||||
X05||
X18||||
X25a||
X25b||
Y|
Y02||44.00||44.00|