NOTA FISCAL|1|
A|2.00|NFe35140804615918000104550010000050081000000106|
B|35|00000010|Devolução de Mercadoria|0|55|1|5008|2014-08-13|2014-08-13|09:11:00|1|3522604|1|1||2|1|3|2.00|||
C|Leao E Leao de Itapira Ltda ME|Mindware|374053100113||||1|
C02|04615918000104|
C05|Rua Duque de Caxias|128||Santa Cruz|3522604|Itapira|SP|13972185|1058|BRASIL|01938432926|
E|Antonio Fornece|464648489||toninho_fornece@gmail.com|
E02|76387783000170|
E05|Rua do Antonio|10||Bairro da Maria|3522604|Itapira|SP|12231313|1058|BRASIL|15148949848|
G|Rua do Antonio|10||Bairro da Maria|3522604|Itapira|SP|
G02|76387783000170|
H|1||
I|4||HD C/ DADOS FISCAL|84717012||5102|Unidad|1.0000|0.0000000000|0.00||Unidad|1.0000|0.0000000000|||||1|
M|0.00|
N|
N10d|4|102|
Q|
Q04|07|
S|
S04|07|
W|
W02|0.00|0.00|0.00|0.00|0.00|0.00|0.00||0.00|0.00|0.00|0.00|0.00|0.00|0.00|
X|0|
X03||||||
X05||
X18||||
X25a||
X25b||
Y|
Y02||0.00||0.00|
Z||I - DOCUMENTO EMITIDO POR ME OU EPP OPTANTE PELO SIMPLES NACIONAL; II - NAO GERA DIREITO A CREDITO FISCAL DE ISS E IPI; III - PERMITE O APROVEITAMENTO DO CREDITO DE ICMS NO VALOR DE R$2,43 CORRESPONDENTE A ALIQUOTA DE 2,56%, NOS TERMOS DO ART. 23 DA LC 123;|