NOTA FISCAL|1|
A|2.00|NFe35130704615918000104550010000000441000018313|
B|35|00001831|Revenda de Mercadorias|1|55|1|44|2013-07-04|2013-07-04|11:39:51|1|3522604|1|1||1|1|3|2.00|||
C|Leao E Leao de Itapira Ltda ME|MindWare|374053100113||||1|
C02|04615918000104|
C05|Rua Duque de Caxias|128||Santa Cruz|3522604|Itapira|SP|13974345|1058|BRASIL|01938432926|
E|SANTOS E TUROLI AUTO MECANICA LTDA - ME|374040045118||cartechno@ig.com.br|
E02|01803861000170|
E05|AVENIDA DOS ITALIANOS|1360||Centro|3522604|Itapira|SP|13970080|1058|BRASIL|1938433933|
H|1||
I|090220014||FONTE BLUECASE BLU250ATX - 250W PRATA 20 + 4 SATA|85044029||5102|Unidad|1.0000|48.7300000000|48.73||Unidad|1.0000|48.7300000000|||||1|
M|
N|
N10d|2|102|
Q|
Q04|07|
S|
S04|07|
H|2||
I|200000004||ESTABILIZADOR SMS REVOL. SPEEDY C. 300VA MONO 115-16511NTSA|90328911||5102|Unidad|1.0000|47.9300000000|47.93||Unidad|1.0000|47.9300000000|||||1|
M|
N|
N10d|4|102|
Q|
Q04|07|
S|
S04|07|
W|
W02|0.00|0.00|0.00|0.00|96.66|0.00|0.00|0.00|0.00|0.00|0.00|0.00|0.00|96.66|
X|9|
Y|
Y02||126.66||126.66|
Y07|44/1|2013-07-28|63.33|
Y07|44/2|2013-08-28|63.33|