NOTAFISCAL|1|
A|3.10|NFe35150404615918000104550010000001561000028024|
B|35|00002802|Devolução de Mercadoria|0|55|1|156|2015-04-22T13:24:00-03:00|2015-04-22T13:24:00-03:00|0|1|3522604|1|1|4|1|4|0|9|3|3.10|||
C|Leao E Leao de Itapira Ltda ME|MindWare|374053100113||||1|
C02|04615918000104|
C05|Rua Duque de Caxias|128||Santa Cruz|3522604|Itapira|SP|13974345|1058|BRASIL|01938432926|
E|JINGFENG TAN LANCHONETE - ME|1|748177797112|||tanlanchonete@gmail.com|
E02|21880457000108|
E05|Rua Luiz Camilo de Camargo|540||Loteamento Remanso Campineiro|3519071|Hortolandia|SP|13184420|1058|BRASIL|19982548768|
H|1||
I|160000021||Processador AMD Sempron 2650 1.4GHz 1MB AM1 - SD2650JAHMBOX|85423190||5202|Unidad|1.0000|149.1900000000|149.19||Unidad|1.0000|149.1900000000|||10.20||1|
M|145.24|
N|
N10d|7|102|
Q|
Q04|07|
S|
S04|07|
H|2||
I|170000033||Placa Mae Gigabyte GA-AM1M-S2H AM1 s/v/r DDR3 microATX|84733041||5411|Unidad|1.0000|184.7700000000|184.77||Unidad|1.0000|184.7700000000|||10.20||1|
M|75.16|
N|
N10d|2|102|
Q|
Q04|07|
S|
S04|07|
H|3||
I|100000016||MEMORIA PATRIOT DDR3 4GB PC3-10600/1333 MHZ|84733042||5411|Unidad|1.0000|221.4700000000|221.47||Unidad|1.0000|221.4700000000|||10.20||1|
M|90.09|
N|
N10d|2|102|
Q|
Q04|07|
S|
S04|07|
H|4||
I|190000006||GABINETE WISECASE FT401 4B S/ FONTE PRETO PIANO|85044021||5411|Unidad|1.0000|115.3400000000|115.34||Unidad|1.0000|115.3400000000|||10.20||1|
M|38.55|
N|
N10d|4|102|
Q|
Q04|07|
S|
S04|07|
H|5||
I|090220015||Fonte BlueCase BLU 500-K ATX 500W Preta 20+4 SATA|85044029||5411|Unidad|1.0000|128.9700000000|128.97||Unidad|1.0000|128.9700000000|||10.20||1|
M|54.92|
N|
N10d|1|102|
Q|
Q04|07|
S|
S04|07|
H|6||
I|070000007||DISCO RIGIDO WESTERN DIGITAL SATA 500GB 7200RPM WD5000AAKXM|84717012||5411|Unidad|1.0000|361.4400000000|361.44||Unidad|1.0000|361.4400000000|||10.18||1|
M|115.12|
N|
N10d|4|102|
Q|
Q04|07|
S|
S04|07|
W|
W02|0.00|0.00|0.00|0.00|0.00|1161.18|0.00|0.00|61.18|0.00|0.00|0.00|0.00|0.00|1100.00|519.08|
X|9|
Y|
Y02|156|1161.18|61.18|1100.00|