NOTA FISCAL|1|
A|2.00|NFe35140604615918000104550010000000971000024382|
B|35|00002438|Revenda de Mercadorias|0|55|1|97|2014-06-20|2014-06-20|12:00:00|1|3522604|1|1||1|1|3|2.00|||
C|Leao E Leao de Itapira Ltda ME|MindWare|374053100113||||1|
C02|04615918000104|
C05|Rua Duque de Caxias|128||Santa Cruz|3522604|Itapira|SP|13974345|1058|BRASIL|01938432926|
E|BANDEIRANTE MATERIAIS DE CONSTRUCAO ITAPIRA LTDA - EPP|374040374114||depositobandeirante@ig.com.br|
E02|01896819000141|
E05|RUA SANTA TEREZINHA|231||PRADOS|3522604|Itapira|SP|13972012|1058|BRASIL|1938637777|
H|1||
I|240460006||CARTUCHO DE TONER HP P1102 / CE285A COMPATÍVEL|84439933||5102|Unidad|1.0000|70.0000000000|70.00||Unidad|1.0000|70.0000000000|||||1|
M|
N|
N10d|0|102|
Q|
Q04|07|
S|
S04|07|
W|
W02|0.00|0.00|0.00|0.00|70.00|0.00|0.00||0.00|0.00|0.00|0.00|0.00|70.00|
X|9|
Y|
Y02||70.00||70.00|