NOTA FISCAL|1|
A|2.00|NFe35130804615918000104550010000000521000019757|
B|35|00001975|Revenda de Mercadorias|1|55|1|52|2013-08-28|2013-08-28|15:17:00|1|3522604|1|1||1|1|3|2.00|||
C|Leao E Leao de Itapira Ltda ME|MindWare|374053100113||||1|
C02|04615918000104|
C05|Rua Duque de Caxias|128||Santa Cruz|3522604|Itapira|SP|13974345|1058|BRASIL|01938432926|
E|ELETRICAR COMERCIO E MANUTENCAO ELETRICA DE VEICULOS LTDA|374128661110||eletricar@ig.com.br|
E02|09243249000100|
E05|RUA ADRIANO ANTONIO DA SILVA |78||JARDIM GUARUJA|3522604|Itapira|SP|13973492|1058|BRASIL|1938432497|
H|1||
I|000000125||LEITOR ÓTICO CÓD DE BARRAS ELGIN - BS313 USB PRETO|84719012||5102|Unidad|1.0000|106.1100000000|106.11||Unidad|1.0000|106.1100000000|||0||1|
M|
N|
N10d|0|102|
Q|
Q04|07|
S|
S04|07|
W|
W02|0.00|0.00|0.00|0.00|106.11|0.00|0.00|0|0.00|0.00|0.00|0.00|0.00|106.11|
X|9|
Y|
Y02||106.11|0|106.11|