NOTA FISCAL|1|
A|2.00|NFe35130604615918000104550010000000421000017963|
B|35|00001796|Revenda|1|55|1|42|2013-06-17|2013-06-17|10:51:00|1|3522604|1|1||1|1|3|2.00|||
C|Leao E Leao de Itapira Ltda ME|MindWare|374053100113||||1|
C02|04615918000104|
C05|Rua Duque de Caxias|128||Santa Cruz|3522604|Itapira|SP|13974345|1058|BRASIL|01938432926|
E|CHARLES GOMES DE ALMEIDA - ME|374112170118||charlesmoveis@hotmail.com|
E02|04756661000100|
E05|RUA ALMIRANTE BARROSO|400|Casa|JARDIM MAGALI|3522604|Itapira|SP|13972030|1058|BRASIL|1938437940|
H|1||
I|000000117||CABO ADAPTADOR USB P/ IMPRESSORA PARALELA|85444200||5102|unidad|1.0000|40.0000000000|40.00||unidad|1.0000|40.0000000000|||||1|
M|
N|
N10d|0|102|
Q|
Q04|07|
S|
S04|07|
W|
W02|0.00|0.00|0.00|0.00|40.00|0.00|0.00|0.00|0.00|0.00|0.00|0.00|0.00|40.00|
X|9|
Y|
Y02||40.00||40.00|
Y07|42/1|2013-06-17|40.00|