NOTA FISCAL|1|
A|2.00|NFe35140404615918000104550010000000821000023440|
B|35|00002344|Revenda de Mercadorias|1|55|1|82|2014-04-24|2014-04-24|14:19:00|1|3522604|1|1||1|1|3|2.00|||
C|Leao E Leao de Itapira Ltda ME|MindWare|374053100113||||1|
C02|04615918000104|
C05|Rua Duque de Caxias|128||Santa Cruz|3522604|Itapira|SP|13974345|1058|BRASIL|01938432926|
E|FOCO INDUSTRIA E COMERCIO DE EMBALAGENS LTDA|374128652119||contato@focoembalagens.com.br|
E02|09241535000129|
E05|RUA NILO BORETTI|200||PRADOS|3522604|Itapira|SP|13973225|1058|BRASIL|1938638600|
H|1||
I|240460006||CARTUCHO DE TONER HP P1102 / CE285A COMPATÍVEL|84439933||5102|Unidad|3.0000|70.0000000000|210.00||Unidad|3.0000|70.0000000000|||||1|
M|
N|
N10d|0|102|
Q|
Q04|07|
S|
S04|07|
W|
W02|0.00|0.00|0.00|0.00|210.00|0.00|0.00||0.00|0.00|0.00|0.00|0.00|210.00|
X|9|
Y|
Y02||210.00||210.00|