NOTA FISCAL|1|
A|2.00|NFe35140404615918000104550010000000801000023314|
B|35|00002331|Revenda de Mercadorias|1|55|1|80|2014-04-08|2014-04-08|15:56:00|1|3522604|1|1||1|1|3|2.00|||
C|Leao E Leao de Itapira Ltda ME|MindWare|374053100113||||1|
C02|04615918000104|
C05|Rua Duque de Caxias|128||Santa Cruz|3522604|Itapira|SP|13974345|1058|BRASIL|01938432926|
E|IBILUX INDUSTRIA DE MATERIAIS ELETRICOS LTDA - EPP |374127860110|||
E02|09111318000114|
E05|Av. Anesio Bazani|150|Distrito Industrial|Parque Progresso|3522604|Itapira|SP|13973532|1058|BRASIL|1938138800|
H|1||
I|030170005||MOUSE COLETEK MS3202 ÓPTICO PS2 C/SCROLL - PRETO|84716053||5102|Unidad|2.0000|10.0000000000|20.00||Unidad|2.0000|10.0000000000|||||1|
M|
N|
N10d|0|102|
Q|
Q04|07|
S|
S04|07|
H|2||
I|000000068||CABO DE ENERGIA|85444200||5102|unidad|2.0000|8.0000000000|16.00||unidad|2.0000|8.0000000000|||||1|
M|
N|
N10d|0|102|
Q|
Q04|07|
S|
S04|07|
H|3||
I|200000004||ESTABILIZADOR SMS REVOL. SPEEDY C. 300VA MONO 115-16511NTSA|90328911||5102|Unidad|1.0000|55.0000000000|55.00||Unidad|1.0000|55.0000000000|||||1|
M|
N|
N10d|4|102|
Q|
Q04|07|
S|
S04|07|
H|4||
I|200000004||ESTABILIZADOR SMS REVOL. SPEEDY C. 300VA MONO 115-16511NTSA|90328911||5102|Unidad|1.0000|55.0000000000|55.00||Unidad|1.0000|55.0000000000|||||1|
M|
N|
N10d|4|102|
Q|
Q04|07|
S|
S04|07|
H|5||
I|240460006||CARTUCHO DE TONER HP P1102 / CE285A COMPATÍVEL|84439933||5102|Unidad|1.0000|70.0000000000|70.00||Unidad|1.0000|70.0000000000|||||1|
M|
N|
N10d|0|102|
Q|
Q04|07|
S|
S04|07|
W|
W02|0.00|0.00|0.00|0.00|216.00|0.00|0.00||0.00|0.00|0.00|0.00|0.00|216.00|
X|9|
Y|
Y02||216.00||216.00|