NOTAFISCAL|1|
A|3.10|NFe35150504615918000104550010000001621000028386|
B|35|00002838|Revenda de Mercadorias|0|55|1|162|2015-05-11T14:51:00-03:00|2015-05-11T14:51:00-03:00|1|1|3522604|1|1|6|1|1|0|1|3|3.10|||
C|Leao E Leao de Itapira Ltda ME|MindWare|374053100113||||1|
C02|04615918000104|
C05|Rua Duque de Caxias|128||Santa Cruz|3522604|Itapira|SP|13974345|1058|BRASIL|01938432926|
E|CR CENTRO DE COBRANCA E PREST. DE SERV. S/S LTDA|2||||netokala@gmail.com|
E02|03077547000183|
E05|PRACA BERNARDINO DE CAMPOS|131||CENTRO|3522604|Itapira|SP|13970005|1058|BRASIL|1938139595|
H|1||
I|240460007||CARTUCHO DE TONER HP Q2612A COMPATIVEL|84439933||5102|Unidad|1.0000|70.0000000000|70.00||Unidad|1.0000|70.0000000000|||||1|
M|20.66|
N|
N10d|0|102|
Q|
Q04|07|
S|
S04|07|
W|
W02|0.00|0.00|0.00|0.00|0.00|70.00|0.00|0.00||0.00|0.00|0.00|0.00|0.00|70.00|20.66|
X|9|
Y|
Y02|162|70.00||70.00|
Y07|162/1|2015-05-11|70.00|