NOTA FISCAL|1|
A|2.00|NFe35140804615918000104550010000001151000025017|
B|35|00002501|Revenda de Mercadorias|1|55|1|115|2014-08-28|2014-08-28|12:04:00|1|3522604|1|1||1|1|3|2.00|||
C|Leao E Leao de Itapira Ltda ME|MindWare|374053100113||||1|
C02|04615918000104|
C05|Rua Duque de Caxias|128||Santa Cruz|3522604|Itapira|SP|13974345|1058|BRASIL|01938432926|
E|DESTRO E CESCON CURSOS PROFISSIONALIZANTES LTDA - ME.|||jet.idiomas@hotmail.com|
E02|08896149000102|
E05|RUA COMENDADOR JOAO CINTRA |147||CENTRO|3522604|Itapira|SP|13970160|1058|BRASIL|1938133218|
H|1||
I|240460006||CARTUCHO DE TONER HP P1102 / CE285A COMPATÍVEL|84439933||5102|Unidad|1.0000|70.0000000000|70.00||Unidad|1.0000|70.0000000000|||23.40||1|
M|
N|
N10d|0|102|
Q|
Q04|07|
S|
S04|07|
W|
W02|0.00|0.00|0.00|0.00|70.00|0.00|0.00|23.40|0.00|0.00|0.00|0.00|0.00|46.60|
X|9|
Y|
Y02||46.60||46.60|