NOTA FISCAL|1|
A|2.00|NFe35150304615918000104550010000001461000027460|
B|35|00002746|Revenda de Mercadorias|1|55|1|146|2015-03-09|2015-03-09|14:49:00|1|3522604|1|1||1|1|3|2.00|||
C|Leao E Leao de Itapira Ltda ME|MindWare|374053100113||||1|
C02|04615918000104|
C05|Rua Duque de Caxias|128||Santa Cruz|3522604|Itapira|SP|13974345|1058|BRASIL|01938432926|
E|Lucas Alves Oliveira|ISENTO|||
E03|39806205812|
E05|Rua Viriato Correia|220||Jardim Isaura|3522604|Itapira|SP|13972185|1058|BRASIL|1983931727|
H|1||
I|180000009||GPU ATI R7 250X 1GB LR FLEX GDDR5 128BITS SAPPHIRE|84733043||5102|Unidad|1.0000|429.5500000000|429.55||Unidad|1.0000|429.5500000000|||||1|
M|
N|
N10d|7|102|
Q|
Q04|07|
S|
S04|07|
H|2||
I|190000006||GABINETE WISECASE FT401 4B S/ FONTE PRETO PIANO|85044021||5102|Unidad|1.0000|67.2000000000|67.20||Unidad|1.0000|67.2000000000|||||1|
M|
N|
N10d|8|102|
Q|
Q04|07|
S|
S04|07|
H|3||
I|140520010||MONITOR LG 21,5 LED 22MP55HQ WIDE IPS HDMI VESA SLIM|85285120||5102|Unidad|1.0000|421.7100000000|421.71||Unidad|1.0000|421.7100000000|||||1|
M|
N|
N10d|4|102|
Q|
Q04|07|
S|
S04|07|
H|4||
I|000000151||TECLADO + MOUSE MICROSOFT WIRELESS DESKTOP 800 - 2LF-00023|84716052||5102|Unidad|1.0000|137.8300000000|137.83||Unidad|1.0000|137.8300000000|||||1|
M|
N|
N10d|1|102|
Q|
Q04|07|
S|
S04|07|
H|5||
I|160000014||Processador Intel Core I5 4440 3.10GHZ 6MB BX80646I54440|85423190||5102|Unidad|1.0000|696.9000000000|696.90||Unidad|1.0000|696.9000000000|||||1|
M|
N|
N10d|7|102|
Q|
Q04|07|
S|
S04|07|
H|6||
I|170000032||PLACA MÃE ASUS H81M-ABR 1150 S/R MICRO ATX|84733041||5102|Unidad|1.0000|218.6000000000|218.60||Unidad|1.0000|218.6000000000|||||1|
M|
N|
N10d|4|102|
Q|
Q04|07|
S|
S04|07|
H|7||
I|100000023||MEMÓRIA PATRIOT DDR3 8GB PC10600/1333 MHZ|84733042||5102|Unidad|1.0000|364.5600000000|364.56||Unidad|1.0000|364.5600000000|||||1|
M|
N|
N10d|2|102|
Q|
Q04|07|
S|
S04|07|
W|
W02|0.00|0.00|0.00|0.00|2336.35|0.00|0.00||0.00|0.00|0.00|0.00|0.00|2336.35|
X|9|
Y|
Y02||2336.35||2336.35|