NOTA FISCAL|1|
A|2.00|NFe35130804615918000104550010000000501000019477|
B|35|00001947|Revenda de Mercadorias|1|55|1|50|2013-08-07|2013-08-07|08:19:00|1|3522604|1|1||1|1|3|2.00|||
C|Leao E Leao de Itapira Ltda ME|MindWare|374053100113||||1|
C02|04615918000104|
C05|Rua Duque de Caxias|128||Santa Cruz|3522604|Itapira|SP|13974345|1058|BRASIL|01938432926|
E|1a. TABELIA DE NOTAS E PROTESTO DE LETRAS E TITULOS|ISENTO||anameizikas@uol.com.br|
E02|14540554000196|
E05|PRACA BERNARDINO DE CAMPOS|113||CENTRO|3522604|Itapira|SP|13970005|1058|BRASIL|1938431866|
H|1||
I|000000055||TONER PARA IMPRESSORA A LASER|37079021||5102|Kg|0.2100|310.0000000000|65.10||Kg|0.2100|310.0000000000|||0.10||1|
M|
N|
N10d|0|102|
Q|
Q04|07|
S|
S04|07|
W|
W02|0.00|0.00|0.00|0.00|65.10|0.00|0.00|0.10|0.00|0.00|0.00|0.00|0.00|65.10|
X|9|
Y|
Y02||65.10|0.10|65.00|