NOTA FISCAL|1|
A|2.00|NFe35130704615918000104550010000000431000018294|
B|35|00001829|Revenda de Mercadorias|1|55|1|43|2013-07-03|2013-07-03|11:52:00|1|3522604|1|1||1|1|3|2.00|||
C|Leao E Leao de Itapira Ltda ME|MindWare|374053100113||||1|
C02|04615918000104|
C05|Rua Duque de Caxias|128||Santa Cruz|3522604|Itapira|SP|13974345|1058|BRASIL|01938432926|
E|RODRIGO (VISAR CONTABILIDADE)|374013562110||rodrigo@contabilidadevisar.cnt.br|
E02|68269208000144|
E05|RUA REGENTE FEIJO|286||CENTRO|3522604|Itapira|SP|13970260|1058|BRASIL|1938138200|
H|1||
I|000000126||BATERIA SELADA 12V 5AH HAZE POWER Código: HSC12-5|85072010||5102|Unidad|1.0000|72.0000000000|72.00||Unidad|1.0000|72.0000000000|||||1|
M|
N|
N10d|3|102|
Q|
Q04|07|
S|
S04|07|
H|2||
I|090220013||FONTE BLUECASE ATX MPV-230 230W CINZA 20+4 SATA|85044029||5102|Unidad|1.0000|50.0000000000|50.00||Unidad|1.0000|50.0000000000|||||1|
M|
N|
N10d|2|102|
Q|
Q04|07|
S|
S04|07|
W|
W02|0.00|0.00|0.00|0.00|122.00|0.00|0.00|0.00|0.00|0.00|0.00|0.00|0.00|122.00|
X|9|
Y|
Y02||122.00||122.00|
Y07|43/1|2013-07-28|122.00|