NOTA FISCAL|1|
A|2.00|NFe35130804615918000104550010000000491000019425|
B|35|00001942|Revenda de Mercadorias|1|55|1|49|2013-08-05|2013-08-05|08:59:00|1|3522604|1|1||1|1|3|2.00|||
C|Leao E Leao de Itapira Ltda ME|MindWare|374053100113||||1|
C02|04615918000104|
C05|Rua Duque de Caxias|128||Santa Cruz|3522604|Itapira|SP|13974345|1058|BRASIL|01938432926|
E|JOEL LOPES DA SILVA - RADIADORES - ME|374115685117||joeloreidoradiador@hotmail.com|
E02|05863587000186|
E05|RUA ARI WILSON CREMASCO|127||JARDIM SOARES|3522604|Itapira|SP|13976030|1058|BRASIL|1938633546|
H|1||
I|100000013||MEMÓRIA DDR2 2GB 667|84733042||5102|Unidad|1.0000|130.0000000000|130.00||Unidad|1.0000|130.0000000000|||0||1|
M|
N|
N10d|2|102|
Q|
Q04|07|
S|
S04|07|
W|
W02|0.00|0.00|0.00|0.00|130.00|0.00|0.00|3|0.00|0.00|0.00|0.00|0.00|296.60|
X|9|
Y|
Y02||296.60|0|296.60|