NOTAFISCAL|1|
A|3.10|NFe35150404615918000104550010000001571000028030|
B|35|00002803|Revenda de Mercadorias|0|55|1|157|2015-04-22T13:34:00-03:00|2015-04-22T13:34:00-03:00|1|1|3522604|1|1|0|1|1|0|1|3|3.10|||
C|Leao E Leao de Itapira Ltda ME|MindWare|374053100113||||1|
C02|04615918000104|
C05|Rua Duque de Caxias|128||Santa Cruz|3522604|Itapira|SP|13974345|1058|BRASIL|01938432926|
E|JINGFENG TAN LANCHONETE - ME|1|748177797112|||tanlanchonete@gmail.com|
E02|21880457000108|
E05|Rua Luiz Camilo de Camargo|540||Loteamento Remanso Campineiro|3519071|Hortolandia|SP|13184420|1058|BRASIL|19982548768|
H|1||
I|000000082||NO BREAK APC BACK-UPS 400VA MONO-115 - BZ400-BR|85044040||5403|Unidad|5.0000|235.7500000000|1178.75||Unidad|5.0000|235.7500000000|||47.15||1|
M|448.75|
N|
N10d|4|102|
Q|
Q04|07|
S|
S04|07|
W|
W02|0.00|0.00|0.00|0.00|0.00|1178.75|0.00|0.00|47.15|0.00|0.00|0.00|0.00|0.00|1131.60|448.75|
X|9|
Y|
Y02|157|1131.60||1131.60|
Y07|157/1|2015-04-23|1131.60|