NOTA FISCAL|1|
A|2.00|NFe35150404615918000104550010000001511000027692|
B|35|00002769|Revenda de Mercadorias|1|55|1|151|2015-04-01|2015-04-01|07:24:10|1|3522604|1|1||1|1|3|2.00|||
C|Leao E Leao de Itapira Ltda ME|MindWare|374053100113||||1|
C02|04615918000104|
C05|Rua Duque de Caxias|128||Santa Cruz|3522604|Itapira|SP|13974345|1058|BRASIL|01938432926|
E|Lucas Alves Oliveira|ISENTO|||
E03|39806205812|
E05|Rua Viriato Correia|220||Jardim Isaura|3522604|Itapira|SP|13972185|1058|BRASIL|1983931727|
H|1||
I|090220017||FONTE WISECASE 500-P42S 220W 20+4 CABO E EMB|85044021||5102|Unidad|1.0000|50.0000000000|50.00||Unidad|1.0000|50.0000000000|||||1|
M|0.00|
N|
N10d|8|102|
Q|
Q04|07|
S|
S04|07|
W|
W02|0.00|0.00|0.00|0.00|50.00|0.00|0.00||0.00|0.00|0.00|0.00|0.00|50.00|0.00|
X|9|
Y|
Y02||50.00||50.00|